d00m00m0000m000
mm0m0000mm0mmm0
am00m0mmm00m0m0
0mm000m000mm000
000mmmm0mm00mmm
m0000m00m000mm0
m0mm000mm00m00m
m00mm0m000m00m0
0m0m00mm000mm00
m00m00000mm00m0
m000m0mmmm0m00m
00m0m0000000m0m
m0m0m0mmmm000m0
00000mmm00mm000
0mmm0000m0m0m0m
mmm0mmm0000000m